{
  "bio": "",
  "chapter": "UI Team",
  "email": "test@accenture.com",
  "interests": ["Music", "Art", "Yoga"],
  "joinedIdeas": [],
  "name": "Test User",
  "office": "Coruña",
  "phoneN": "+3100000000000",
  "position": "UI Designer",
  "profileImgUrl": "https://firebasestorage.googleapis.com/v0/b/standapp-bcbb2.appspot.com/o/profile_images%2FUwGs8sGezpdQx3T8VcyH24xDIGh1Screenshot_20190525-191249.jpg?alt=media&token=3126e2c1-5361-45a7-b8f4-b02e29bdb60a",
  "skills": ["Photoshop", "Illustrator", "Adobe", "Other", "Drawing"],
  "uid": "UwGs8sGezpdQx3T8VcyH24xDIGh1"
}